[
  {
    "id": 1,
    "name": "Persekutuan Komanditer (CV)"
  },
  {
    "id": 2,
    "name": "Firma"
  },
  {
    "id": 3,
    "name": "Perseroan Terbatas (PT)"
  },
  {
    "id": 4,
    "name": "BUMN"
  },
  {
    "id": 5,
    "name": "Yayasan"
  },
  {
    "id": 6,
    "name": "Koperasi"
  }
]