{
  "type": "service_account",
  "project_id": "kerjayuk-83f48",
  "private_key_id": "dca4b440b778ee98bcc5d8d6316638f6de4663e9",
  "private_key": "-----BEGIN PRIVATE KEY-----\nMIIEvQIBADANBgkqhkiG9w0BAQEFAASCBKcwggSjAgEAAoIBAQCk1/RL9k+FTUZA\n8k0/fI+L/fkdUTeTHtsAubZwbNsrdbaFTq66rsM2QRH9QR7034Zp42CswNzW0dU+\nxd3H7mLRE7J5CCqbq8ExDnXyJCZSh4vygguW2blddbKHRjVGy0FbERGV93n9HDyz\nxZDIfVzk4G1QuXPrIs1bkvNH17iGNOkBGkQGFxvOsxP/OAcGmDusP3bDS+W80Zxr\nIhAB8ZeEXR75StY8jP9MpR8qY9e7CC4R1Hy9hpOqID98K/EQOICUpRGmDyAc7ykv\nMGJkbYLsGEug9p7qHsaoDNnCGv0vSstvFzKMq+WTOfU1LPQfFU/uv7o+OrCRo+0j\nqhK7W6jpAgMBAAECggEAAi1Ww85IXMLJa4N9cIMfp26vyTYtTLT//hIe+rNREFqu\nKMYrT37E7LhQ5OruB0o50hxfggJMJPI/Q3IsKSqWkLJNdFu6F56ieDhgOd8YUULm\nI27jFIwLfGI0U8Bv7iigGN1b714YRzt8uK4HG0MMdKhSEv8OmpFaecvo/77aNelj\nIcrQzLxiQEZucH9iGqYvm+Qlh2tPBQ8CbNezQ28aDe7baWj1C4wJfEpS65dQTyvJ\nb0OsSmQpsm3MdQ6tVwL0nG/whOgLqjH+8LPV/s9CZVfOHh4DY7kfx8ftxE5okayD\ncdLn2CfdKmpAd1lnzSMcV9dILtEYTJBYLX1cixPk0QKBgQDkQIC3ujF22ut/75c5\nLy+uiQ0pc9SbXfpN6w6oZb5ritx/7s/Gk3RJrmd5YHGe5enpmMAeRk64r8a17GCk\n7jrijqRHyBrLOQ3IeLpDSRzf8jp9+A3/LKxgslyhne0sckSgRAawpdd1nQyyHMTA\nfer2P43hQopXsH1iREZbMjAhuQKBgQC44hmc/e9rQ0v9sOt1tbtyjdAKwSf9qgPB\nXTJUC3J8EaePaGy4JQovrWRIboBol6fBkkxymdYduDilZp87g6CICVuTIKKsm6/8\nvmhaKeq+OuQYP0FyRopLyp/b4LbFJGlg3wX6qpXfYzo141mYlWMkl9RMvDUcdak9\nvjRr/cMYsQKBgQDEGxM8R3HGL1MUqVIhJIRwDXpMeiNZlYW/ukvurPPMzBKkrBbC\nAuBvibOHWjBkmB6/v6iYmkl6bjNpDH0AV1oqWumUbr1ui0dnTSqjMsbnNePBZQUJ\nj2VO8w+ZH+mtPUPu+mNRFDuo5lUJFqSIyea8yV/qANSBgLZJXmWgZt9pqQKBgDM2\nnnW4eduylpg9q9u9baE720c/Xj6MG+IyWMCjMyFfGpVFDeisiffPBhpyUaunZtbe\nGcMdDgzJfReEJ9OqkIteXDmTLry1m7hdXjarqdTsJ0b4Lr7i/2gjRsj3pGlTvsUQ\nwm0/V6i7qeJHiggUSZRXYn2nHOc3SJxL1eWcM7DhAoGALeAbbnmAXYctMwhsjvdb\nVcDS0Z7exPWcgJKj5cZ08gZ94Qm1/LLTwZVlQ6hC5vcUc8PjVljhkUulYAxjLEap\ni2ueqL79SwrUTvLkT/X1e8doBI3vLRFbal8jTNA5bUx14By2hL5qaqwgSZtqcbTq\nYeF52hx63jnWut56zFnrMR4=\n-----END PRIVATE KEY-----\n",
  "client_email": "firebase-adminsdk-biyrf@kerjayuk-83f48.iam.gserviceaccount.com",
  "client_id": "113750977655308299013",
  "auth_uri": "https://accounts.google.com/o/oauth2/auth",
  "token_uri": "https://oauth2.googleapis.com/token",
  "auth_provider_x509_cert_url": "https://www.googleapis.com/oauth2/v1/certs",
  "client_x509_cert_url": "https://www.googleapis.com/robot/v1/metadata/x509/firebase-adminsdk-biyrf%40kerjayuk-83f48.iam.gserviceaccount.com"
}
